No of trials, Steps per trial, Seed, No of Agents, Max Motility, Max Sensitivity, Max Colours, Max Lifespan, Survival Rate, Reproduction Rate, Peptides Produced, Starting Peptides, Max Diffusion Rate, Expiry Rate, Fitness
1,1000,100,50,1,1,3,1,0.4,0.4,1,1,1,1.0,1,2.142525768028629
1,1000,101,50,1,1,3,1,0.4,0.4,1,1,1,1.0,1,2.147673159491453
1,1000,102,50,1,1,3,1,0.4,0.4,1,1,1,1.0,1,2.137853284644825
1,1000,103,50,1,1,3,1,0.4,0.4,1,1,1,1.0,1,2.1454409026273984
1,1000,104,50,1,1,3,1,0.4,0.4,1,1,1,1.0,1,2.1410667123344536
1,1000,105,50,1,1,3,1,0.4,0.4,1,1,1,1.0,1,2.144663920835461
1,1000,106,50,1,1,3,1,0.4,0.4,1,1,1,1.0,1,2.142039526557186
1,1000,107,50,1,1,3,1,0.4,0.4,1,1,1,1.0,1,2.142234036389737
1,1000,108,50,1,1,3,1,0.4,0.4,1,1,1,1.0,1,2.1437894797142123
1,1000,109,50,1,1,3,1,0.4,0.4,1,1,1,1.0,1,2.1435951110226017
1,1000,110,50,1,1,3,1,0.4,0.4,1,1,1,1.0,1,2.1439838307848
1,1000,111,50,1,1,3,1,0.4,0.4,1,1,1,1.0,1,2.138632740794922
1,1000,112,50,1,1,3,1,0.4,0.4,1,1,1,1.0,1,2.1489338441810317
1,1000,113,50,1,1,3,1,0.4,0.4,1,1,1,1.0,1,2.1520339216657343
1,1000,114,50,1,1,3,1,0.4,0.4,1,1,1,1.0,1,2.14116401364616
1,1000,115,50,1,1,3,1,0.4,0.4,1,1,1,1.0,1,2.146217603133475
1,1000,116,50,1,1,3,1,0.4,0.4,1,1,1,1.0,1,2.1448581926707107
1,1000,117,50,1,1,3,1,0.4,0.4,1,1,1,1.0,1,2.13687856463581
1,1000,118,50,1,1,3,1,0.4,0.4,1,1,1,1.0,1,2.143011899173684
1,1000,119,50,1,1,3,1,0.4,0.4,1,1,1,1.0,1,2.146314670934033
1,1000,120,50,1,1,3,1,0.4,0.4,1,1,1,1.0,1,2.142525768028629
1,1000,121,50,1,1,3,1,0.4,0.4,1,1,1,1.0,1,2.1482551058940835
1,1000,122,50,1,1,3,1,0.4,0.4,1,1,1,1.0,1,2.1452466835619006
1,1000,123,50,1,1,3,1,0.4,0.4,1,1,1,1.0,1,2.13834047803431
1,1000,124,50,1,1,3,1,0.4,0.4,1,1,1,1.0,1,2.138924963620744
1,1000,125,50,1,1,3,1,0.4,0.4,1,1,1,1.0,1,2.142720233721612
1,1000,126,50,1,1,3,1,0.4,0.4,1,1,1,1.0,1,2.1416504538945347
1,1000,127,50,1,1,3,1,0.4,0.4,1,1,1,1.0,1,2.146314670934033
1,1000,128,50,1,1,3,1,0.4,0.4,1,1,1,1.0,1,2.1456351041125328
1,1000,129,50,1,1,3,1,0.4,0.4,1,1,1,1.0,1,2.14883689469443
1,1000,130,50,1,1,3,1,0.4,0.4,1,1,1,1.0,1,2.140872096444188
1,1000,131,50,1,1,3,1,0.4,0.4,1,1,1,1.0,1,2.143303524935281
1,1000,132,50,1,1,3,1,0.4,0.4,1,1,1,1.0,1,2.14815812577504
1,1000,133,50,1,1,3,1,0.4,0.4,1,1,1,1.0,1,2.1412613105363856
1,1000,134,50,1,1,3,1,0.4,0.4,1,1,1,1.0,1,2.147091055358389
1,1000,135,50,1,1,3,1,0.4,0.4,1,1,1,1.0,1,2.13834047803431
1,1000,136,50,1,1,3,1,0.4,0.4,1,1,1,1.0,1,2.152130727132222
1,1000,137,50,1,1,3,1,0.4,0.4,1,1,1,1.0,1,2.1400934559032696
1,1000,138,50,1,1,3,1,0.4,0.4,1,1,1,1.0,1,2.1428174599500225
1,1000,139,50,1,1,3,1,0.4,0.4,1,1,1,1.0,1,2.146896985573986
1,1000,140,50,1,1,3,1,0.4,0.4,1,1,1,1.0,1,2.1409694066006644
1,1000,141,50,1,1,3,1,0.4,0.4,1,1,1,1.0,1,2.146120530942597
1,1000,142,50,1,1,3,1,0.4,0.4,1,1,1,1.0,1,2.1457321982639557
1,1000,143,50,1,1,3,1,0.4,0.4,1,1,1,1.0,1,2.1434007247051743
1,1000,144,50,1,1,3,1,0.4,0.4,1,1,1,1.0,1,2.1448581926707107
1,1000,145,50,1,1,3,1,0.4,0.4,1,1,1,1.0,1,2.145149567435023
1,1000,146,50,1,1,3,1,0.4,0.4,1,1,1,1.0,1,2.1448581926707107
1,1000,147,50,1,1,3,1,0.4,0.4,1,1,1,1.0,1,2.1482551058940835
1,1000,148,50,1,1,3,1,0.4,0.4,1,1,1,1.0,1,2.142234036389737
1,1000,149,50,1,1,3,1,0.4,0.4,1,1,1,1.0,1,2.1402881425951352
1,1000,150,50,1,1,3,1,0.4,0.4,1,1,1,1.0,1,2.137853284644825
1,1000,151,50,1,1,3,1,0.4,0.4,1,1,1,1.0,1,2.15
1,1000,152,50,1,1,3,1,0.4,0.4,1,1,1,1.0,1,2.1523243250030886
1,1000,153,50,1,1,3,1,0.4,0.4,1,1,1,1.0,1,2.140385479300399
1,1000,154,50,1,1,3,1,0.4,0.4,1,1,1,1.0,1,2.144275324361745
1,1000,155,50,1,1,3,1,0.4,0.4,1,1,1,1.0,1,2.1436922975713344
1,1000,156,50,1,1,3,1,0.4,0.4,1,1,1,1.0,1,2.142525768028629
1,1000,157,50,1,1,3,1,0.4,0.4,1,1,1,1.0,1,2.13804817532253
1,1000,158,50,1,1,3,1,0.4,0.4,1,1,1,1.0,1,2.1457321982639557
1,1000,159,50,1,1,3,1,0.4,0.4,1,1,1,1.0,1,2.141942265017119
1,1000,160,50,1,1,3,1,0.4,0.4,1,1,1,1.0,1,2.14679994410285
1,1000,161,50,1,1,3,1,0.4,0.4,1,1,1,1.0,1,2.14815812577504
1,1000,162,50,1,1,3,1,0.4,0.4,1,1,1,1.0,1,2.1373659802039833
1,1000,163,50,1,1,3,1,0.4,0.4,1,1,1,1.0,1,2.14116401364616
1,1000,164,50,1,1,3,1,0.4,0.4,1,1,1,1.0,1,2.142525768028629
1,1000,165,50,1,1,3,1,0.4,0.4,1,1,1,1.0,1,2.1454409026273984
1,1000,166,50,1,1,3,1,0.4,0.4,1,1,1,1.0,1,2.1412613105363856
1,1000,167,50,1,1,3,1,0.4,0.4,1,1,1,1.0,1,2.142720233721612
1,1000,168,50,1,1,3,1,0.4,0.4,1,1,1,1.0,1,2.1439838307848
1,1000,169,50,1,1,3,1,0.4,0.4,1,1,1,1.0,1,2.1459263733874936
1,1000,170,50,1,1,3,1,0.4,0.4,1,1,1,1.0,1,2.1434979200674147
1,1000,171,50,1,1,3,1,0.4,0.4,1,1,1,1.0,1,2.139801392653066
1,1000,172,50,1,1,3,1,0.4,0.4,1,1,1,1.0,1,2.1436922975713344
1,1000,173,50,1,1,3,1,0.4,0.4,1,1,1,1.0,1,2.144275324361745
1,1000,174,50,1,1,3,1,0.4,0.4,1,1,1,1.0,1,2.1392171465281407
1,1000,175,50,1,1,3,1,0.4,0.4,1,1,1,1.0,1,2.146508793366568
1,1000,176,50,1,1,3,1,0.4,0.4,1,1,1,1.0,1,2.138632740794922
1,1000,177,50,1,1,3,1,0.4,0.4,1,1,1,1.0,1,2.1438866574518345
1,1000,178,50,1,1,3,1,0.4,0.4,1,1,1,1.0,1,2.1485460199865396
1,1000,179,50,1,1,3,1,0.4,0.4,1,1,1,1.0,1,2.144080999713708
1,1000,180,50,1,1,3,1,0.4,0.4,1,1,1,1.0,1,2.1436922975713344
1,1000,181,50,1,1,3,1,0.4,0.4,1,1,1,1.0,1,2.1450524469112637
1,1000,182,50,1,1,3,1,0.4,0.4,1,1,1,1.0,1,2.1436922975713344
1,1000,183,50,1,1,3,1,0.4,0.4,1,1,1,1.0,1,2.144469631400734
1,1000,184,50,1,1,3,1,0.4,0.4,1,1,1,1.0,1,2.1459263733874936
1,1000,185,50,1,1,3,1,0.4,0.4,1,1,1,1.0,1,2.1501937897160186
1,1000,186,50,1,1,3,1,0.4,0.4,1,1,1,1.0,1,2.1400934559032696
1,1000,187,50,1,1,3,1,0.4,0.4,1,1,1,1.0,1,2.1457321982639557
1,1000,188,50,1,1,3,1,0.4,0.4,1,1,1,1.0,1,2.1502906780247177
1,1000,189,50,1,1,3,1,0.4,0.4,1,1,1,1.0,1,2.141455891054806
1,1000,190,50,1,1,3,1,0.4,0.4,1,1,1,1.0,1,2.1443724800820716
1,1000,191,50,1,1,3,1,0.4,0.4,1,1,1,1.0,1,2.1431091121701353
1,1000,192,50,1,1,3,1,0.4,0.4,1,1,1,1.0,1,2.143206320757135
1,1000,193,50,1,1,3,1,0.4,0.4,1,1,1,1.0,1,2.1460234543608014
1,1000,194,50,1,1,3,1,0.4,0.4,1,1,1,1.0,1,2.1443724800820716
1,1000,195,50,1,1,3,1,0.4,0.4,1,1,1,1.0,1,2.144080999713708
1,1000,196,50,1,1,3,1,0.4,0.4,1,1,1,1.0,1,2.1357083134173545
1,1000,197,50,1,1,3,1,0.4,0.4,1,1,1,1.0,1,2.140774781864423
1,1000,198,50,1,1,3,1,0.4,0.4,1,1,1,1.0,1,2.1445667783183313
1,1000,199,50,1,1,3,1,0.4,0.4,1,1,1,1.0,1,2.1447610589527217
1,1000,200,50,1,1,3,1,0.4,0.4,1,1,1,1.0,1,2.145149567435023
